Assignment 5 - DESeq2
…
#use tail to display the bottom of the list
tail(ranked_list)

##       Cpa1      Bmp10      Troap    Or51af1      Tnni1       Dlk1 
##  -8.798726  -9.230116  -9.251710  -9.392386  -9.859226 -10.275799

Perform a GSEA using a ranked list log2FoldChange values for all
genes discovered in the DESeq2 results against the C2 Canonical Pathways
gene set collection. As recommended, please set the minSize and maxSize
parameters to 15 and 500, respectively. Before running fgsea, you will
have to load the GMT pathways file in an appropriate format for
fgsea. Otherwise, run fgsea using default parameters and
the fgsea() function.

## # A tibble: 986 × 8
##    pathway                    pval  padj log2err     ES    NES  size leadingEdge
##    <chr>                     <dbl> <dbl>   <dbl>  <dbl>  <dbl> <int> <list>     
##  1 BIOCARTA_BAD_PATHWAY      0.997     1  0.0368 -0.160 -0.465    23 <chr [9]>  
##  2 BIOCARTA_CALCINEURIN_PAT… 0.990     1  0.0384 -0.184 -0.491    17 <chr [17]> 
##  3 BIOCARTA_CASPASE_PATHWAY  0.934     1  0.0400 -0.236 -0.675    22 <chr [2]>  
##  4 BIOCARTA_CTCF_PATHWAY     1         1  0.0367 -0.126 -0.365    23 <chr [9]>  
##  5 BIOCARTA_CXCR4_PATHWAY    0.882     1  0.0609  0.242  0.711    19 <chr [18]> 
##  6 BIOCARTA_DEATH_PATHWAY    1         1  0.0581  0.133  0.440    30 <chr [12]> 
##  7 BIOCARTA_ERK_PATHWAY      0.975     1  0.0382 -0.209 -0.613    25 <chr [3]>  
##  8 BIOCARTA_GH_PATHWAY       0.910     1  0.0614  0.219  0.705    27 <chr [13]> 
##  9 BIOCARTA_GLEEVEC_PATHWAY  0.995     1  0.0566  0.169  0.515    22 <chr [13]> 
## 10 BIOCARTA_GSK3_PATHWAY     0.946     1  0.0581  0.217  0.645    20 <chr [20]> 
## # ℹ 976 more rows
…
